CODIGO ,NOMBRE ,P1,P2,P3,EXAMEN
12265,Emma,4,0,3,4
11508,Pepe,4,1,0,1
11505,Sandra,3,0,1,5
16111,Nicol,0,3,3,1
11555,Goku,3,4,4,4
11549,Ana,4,4,3,3
11527,Rodolfo,0,4,1,3
11553,Kenay,3,2,2,4
11507,Bautista,4,3,4,4
11500,Rick,1,4,4,5